\relax 
\@writefile{toc}{\contentsline {section}{\numberline {1}General Formatting}{1}}
\@writefile{toc}{\contentsline {section}{\numberline {2}Headers}{1}}
\@writefile{toc}{\contentsline {section}{\numberline {3}Links}{1}}
\@writefile{toc}{\contentsline {section}{\numberline {4}Links as Variable}{2}}
\@writefile{toc}{\contentsline {section}{\numberline {5}Quote}{2}}
\@writefile{toc}{\contentsline {section}{\numberline {6}Horizontal Line}{2}}
\@writefile{toc}{\contentsline {section}{\numberline {7}Inline Code}{2}}
\@writefile{toc}{\contentsline {section}{\numberline {8}Block Code}{2}}
\@writefile{toc}{\contentsline {section}{\numberline {9}Unordered List}{2}}
\@writefile{toc}{\contentsline {section}{\numberline {10}Ordered List}{2}}
